{
  "/home/*": {
    "target": "http://casasbahia-dev.jornada.dc.nova/home",
    "secure": false,
    "logLevel": "debug",
    "changeOrigin": true,
    "pathRewrite": {
      "^/home": ""
    }
  },
  "/catalogo/*": {
    "target": "http://casasbahia-dev.jornada.dc.nova/catalogo",
    "secure": false,
    "logLevel": "debug",
    "changeOrigin": true,
    "pathRewrite": {
      "^/catalogo": ""
    }
  },
  "/carrinho/*": {
    "target": "http://casasbahia-dev.jornada.dc.nova/carrinho",
    "secure": false,
    "logLevel": "debug",
    "changeOrigin": true,
    "pathRewrite": {
      "^/carrinho": ""
    }
  },
  "/atendimento/*": {
    "target": "http://casasbahia-dev.jornada.dc.nova/atendimento",
    "secure": false,
    "logLevel": "debug",
    "changeOrigin": true,
    "pathRewrite": {
      "^/atendimento": ""
    }
  },
  "/crediario/*": {
    "target": "http://casasbahia-dev.jornada.dc.nova/crediario",
    "secure": false,
    "logLevel": "debug",
    "changeOrigin": true,
    "pathRewrite": {
      "^/crediario": ""
    }
  }
}
